<?xml version="1.0" encoding="UTF-8"?>
<svg height="128px" viewBox="0 0 128 128" width="128px" xmlns="http://www.w3.org/2000/svg">
    <path d="m 28 12 h 72 c 8.835938 0 16 7.164062 16 16 v 72 c 0 8.835938 -7.164062 16 -16 16 h -72 c -8.835938 0 -16 -7.164062 -16 -16 v -72 c 0 -8.835938 7.164062 -16 16 -16 z m 0 0" fill="#4c9ed5"/>
    <g fill="#ffffff">
        <path d="m 52.183594 31.804688 c -0.808594 0.003906 -2.054688 0.011718 -2.054688 0.011718 c 0.007813 2.324219 0.007813 4.640625 0 6.304688 c 2.84375 -0.128906 5.730469 0.070312 8.613282 0.597656 c 18.457031 3.386719 31.519531 20.089844 30.632812 38.734375 c 1.480469 0 4.414062 0 6.710938 0.003906 c 0.550781 -12.117187 -3.972657 -24.105469 -12.851563 -32.9375 c -7.023437 -6.984375 -15.394531 -11.101562 -25.460937 -12.523437 c -0.914063 -0.128906 -2.847657 -0.195313 -5.589844 -0.191406 z m -1.445313 13.863281 c -0.214843 0.003906 -0.433593 0.011719 -0.652343 0.019531 c 0.050781 2.882812 0.050781 4.941406 0.023437 6.824219 c 0.3125 -0.003907 0.667969 -0.003907 1.078125 -0.003907 c 2.421875 0 3.761719 0.160157 5.925781 0.703126 c 6.792969 1.703124 12.578125 6.414062 15.691407 12.777343 c 1.5625 3.1875 2.332031 6.328125 2.433593 9.921875 c 0.015625 0.515625 0.015625 1.03125 0 1.542969 c 2.15625 0 4.582031 0 6.820313 -0.011719 c 0.015625 -1.59375 -0.027344 -3.503906 -0.125 -4.3125 c -0.589844 -4.984375 -2.183594 -9.417968 -4.839844 -13.476562 c -4.527344 -6.917969 -11.617188 -11.738282 -19.65625 -13.367188 c -2.222656 -0.453125 -4.46875 -0.65625 -6.699219 -0.617187 z m 0 0"/>
        <path d="m 49.058594 95.984375 c -0.8125 -0.074219 -1.640625 -0.183594 -2.257813 -0.304687 c -6.449219 -1.261719 -11.773437 -5.960938 -13.863281 -12.238282 c -0.65625 -1.964844 -0.933594 -3.703125 -0.9375 -5.847656 c 0 -1.585938 0.105469 -2.605469 0.421875 -4.046875 c 1.5 -6.789063 6.730469 -12.199219 13.417969 -13.875 c 1.378906 -0.347656 2.488281 -0.492187 4.003906 -0.53125 c 3.003906 -0.074219 5.773438 0.527344 8.441406 1.832031 c 6.585938 3.21875 10.648438 10.121094 10.28125 17.472656 c -0.105468 2.144532 -0.5 3.988282 -1.261718 5.917969 c -1.1875 3.007813 -3.09375 5.601563 -5.59375 7.617188 c -2.671876 2.152343 -5.855469 3.496093 -9.289063 3.917969 c -0.609375 0.074218 -2.855469 0.132812 -3.363281 0.085937 z m 7.824218 -18.640625 c 1.675782 -0.441406 3.054688 -1.726562 3.621094 -3.371094 c 0.9375 -2.730468 -0.484375 -5.714844 -3.179687 -6.679687 c -2.503907 -0.894531 -5.226563 0.210937 -6.417969 2.605469 c -0.757812 1.527343 -0.757812 3.144531 0 4.6875 c 0.722656 1.480468 1.992188 2.46875 3.621094 2.820312 c 0.625 0.136719 1.714844 0.105469 2.355468 -0.0625 z m 0 0"/>
    </g>
</svg>
