<?xml version="1.0" encoding="UTF-8" standalone="no"?>
<svg
   height="64"
   viewBox="0 0 64 64"
   width="64"
   version="1.1"
   id="svg2"
   sodipodi:docname="feed-service-newsblur-symbolic.svg"
   inkscape:version="1.3 (0e150ed6c4, 2023-07-21)"
   xmlns:inkscape="http://www.inkscape.org/namespaces/inkscape"
   xmlns:sodipodi="http://sodipodi.sourceforge.net/DTD/sodipodi-0.dtd"
   xmlns="http://www.w3.org/2000/svg"
   xmlns:svg="http://www.w3.org/2000/svg">
  <defs
     id="defs2" />
  <clipPath
     id="a">
    <path
       d="M 8,0 9.75,3.769531 13.65625,2.34375 12.230469,6.25 16,8 12.230469,9.75 13.65625,13.65625 9.75,12.230469 8,16 6.25,12.230469 2.34375,13.65625 3.769531,9.75 0,8 3.769531,6.25 2.34375,2.34375 6.25,3.769531 Z m 0,0"
       id="path1" />
  </clipPath>
  <g
     clip-path="url(#a)"
     id="g2"
     style="fill:#bebebe;fill-opacity:1"
     transform="scale(4)">
    <path
       d="m 8,-0.832031 c -4.886719,0 -8.847656,3.960937 -8.84375,8.84375 0,4.886719 3.960938,8.847656 8.84375,8.84375 4.882812,0.0039 8.84375,-3.957031 8.847656,-8.84375 0,-4.882813 -3.960937,-8.84375 -8.847656,-8.84375 z M 8,4 c 2.203125,0 4,1.796875 4,4 0,2.203125 -1.796875,4 -4,4 C 5.796875,12 4,10.203125 4,8 4,5.796875 5.796875,4 8,4 Z M 8,5 C 6.335938,5 5,6.335938 5,8 5,9.664062 6.335938,11 8,11 9.664062,11 11,9.664062 11,8 11,6.335938 9.664062,5 8,5 Z m 0,0"
       id="path2"
       style="fill:#bebebe;fill-opacity:1" />
  </g>
</svg>
